{
    "Acrobatics": {
        "ability": "Dexterity",
        "description": "Acrobatics measures your ability to perform physical feats that require balance, coordination, and grace.",
        "untrained": [{
            "name": "Balance",
            "actions": "one action",
            "actionicon": "<img src=\"/pathfinder/images/action-one.svg\" style=\"height: 1.5em; float: left;\">&nbsp;",
            "p": 144,
            "traits": "Move",
            "desc": "You can move across a narrow surface or uneven ground by attempting an Acrobatics check against the DC of the narrow surface or uneven ground. You start this action while in a square that contains a narrow surface, uneven ground, or another similar feature. You are always <a url=\"/pathfinder/pf2e/conditions.html\">flat-footed</a> while on a narrow surface or uneven ground.",
            "success": "You move up to your Speed across the narrow surface or uneven ground, treating it as difficult terrain (see page 312).",
            "critsuccess": "You move up to your Speed across the narrow surface or uneven ground, treating it as normal terrain.",
            "failure": "You must stay stationary (wasting the action) or you fall. If you fall, your turn ends.",
            "critfailure": "You fall, and your turn ends."
        }, {
            "name": "Escape",
            "actions": "one action",
            "actionicon": "<img src=\"/pathfinder/images/action-one.svg\" style=\"height: 1.5em; float: left;\">&nbsp;",
            "p": 144,
            "traits": "none",
            "desc": "When trying to escape from restraints or a creature's <a url=\"/pathfinder/pf2e/skills/athletics.html\">Grapple</a>, attempt an Acrobatics check. If you're tied up by a creature, the escape DC is that creature's Thievery DC. If you're <a url=\"/pathfinder/pf2e/traits.html\">restrained</a> by manacles or some other device, the DC is based on the type of restraint. Against a <a url=\"/pathfinder/pf2e/skills/athletics.html\">Grapple</a>, the escape DC is the Grappling creature's Athletics DC.",
            "success": "You escape from the restraints or the Grapple, losing the grabbed or restrained condition.",
            "critsuccess": "Per a success, and you can move up to 5 feet. If you move, this action gains the move trait.",
            "critfailure": "You don't escape, and you take a &ndash;2 circumstance penalty to Acrobatics checks to Escape until the end of your current turn."
        }, {
            "name": "Grab Edge",
            "actions": "one reaction",
            "actionicon": "<img src=\"/pathfinder/images/reaction.svg\" style=\"height: 1.5em; float: left;\">&nbsp;",
            "p": 144,
            "traits": "Manipulate",
            "desc": "When you fall off an edge or past an edge or some other form of handhold, you can use this reaction in an attempt to grab it, potentially stopping your fall. If you grab on, you can then <a url=\"/pathfinder/pf2e/skills/athletics.html\">Climb</a> up using Athletics.",
            "trigger": "You fall from or past an edge or handhold.",
            "Requirements": "Your hands are not tied behind your back or otherwise <a url=\"/pathfinder/pf2e/traits.html\">restrained</a>.",
            "success": "If you have at least one hand free, you grab on to the edge or the handhold, stopping your fall. You still take damage from the distance fallen so far, but you treat the fall as though you had fallen 20 feet fewer. If you have no hands free, you continue to fall as if you had failed the check.",
            "critsuccess": "You grab on to the edge or the handhold, whether or not you have a hand free, typically by using a suitable held item to catch yourself (catching a battle axe on a ledge, for example). You still take damage from the distance fallen so far, but you treat the fall as though you had fallen 30 feet fewer.",
            "critfailure": "You continue to fall, and if you've fallen 20 feet or more before you use this reaction, you take 10 bludgeoning damage from the impact for every 20 feet fallen."
        }, {
            "name": "Maintain Balance",
            "actions": "free action",
            "actionicon": "<img src=\"/pathfinder/images/free.svg\" style=\"height: 1.5em; float: left;\">&nbsp;",
            "p": 144,
            "traits": "none",
            "desc": "You try to keep your balance to avoid falling.",
            "trigger": "You take damage while standing on a narrow surface or uneven ground or otherwise have your balanced tested, as determined by the GM.",
            "success": "You keep your balance.",
            "critsuccess": "You keep your balance and don't need to attempt further checks to Maintain Balance this round.",
            "failure": "You fall."
        }, {
            "name": "Squeeze",
            "actions": "activity",
            "p": 145,
            "traits": "Move",
            "desc": "You attempt to squeeze through a small space by contorting your body to fit through.",
            "success": "You squeeze through the tight space in 1 minute per 5 feet of squeezing.",
            "critsuccess": "You squeeze through the tight space in 1 minute per 10 feet of squeezing.",
            "critfailure": "You become stuck in the tight space. While you're stuck, you can spend 1 minute attempting another Acrobatics check at the same DC. Any result other than a critical failure causes you to become unstuck."
        }, {
            "name": "Tumble Through",
            "actions": "one action",
            "actionicon": "<img src=\"/pathfinder/images/action-one.svg\" style=\"height: 1.5em; float: left;\">&nbsp;",
            "p": 145,
            "traits": "Move",
            "desc": "You <a url=\"/pathfinder/pf2e/actions.html\">Stride</a> up to your Speed. During this movement, you can try to move through the space of one enemy. Attempt an Acrobatics check against the enemy's Reflex DC as soon as you try to enter its space. You can Tumble Through using <a url=\"/pathfinder/pf2e/skills/athletics.html\">Climb</a>, <a url=\"/pathfinder/pf2e/actions.html\">Fly</a>, <a url=\"/pathfinder/pf2e/skills/athletics.html\">Swim</a>, or another movement type in the appropriate environment.",
            "success": "You move through the enemy's space, treating the squares in its space as difficult terrain. If you don't have enough Speed to move all the way through its space, you get the same effect as on a failure.",
            "failure": "Your movement ends, and you trigger reactions (such as Attacks of Opportunity) as if you had moved out of the square you started in."
        }],
        "trained": [{
            "name": "Maneuver in Flight",
            "actions": "one action",
            "actionicon": "<img src=\"/pathfinder/images/action-one.svg\" style=\"height: 1.5em; float: left;\">&nbsp;",
            "p": 145,
            "traits": "Move",
            "desc": "If you have a fly Speed (see page 310) and you must conduct a difficult maneuver while flying, attempt an Acrobatics check.",
            "success": "You succeed at the maneuver.",
            "critsuccess": "You succeed at the maneuver and gain a +2 circumstance bonus to your checks to Maneuver in Flight until the end of your next turn.",
            "failure": "Your maneuver fails, and the GM chooses whether you simply can't move or some other detrimental effect happens. This consequence should be appropriate for the maneuver you attempted (for instance, being blown off course if you were trying to fly against a strong wind)."
        }]
    },
    "Arcana": {
        "ability": "Intelligence",
        "description": "This skill measures how much you know about alchemy, arcane spells, and the most common magic items. Further, it determines how much information you have on theories about alchemy and arcane energies as well as lore about the creatures associated with them.</p><p>If you're trained in Arcana, regardless of whether or not you're an alchemist or a spellcaster, you're versed in how to identify alchemical and magic items, even those you normally would not be able to use.",
        "untrained": [{
            "name": "Recall Knowledge",
            "actions": "one action",
            "actionicon": "<img src=\"/pathfinder/images/action-one.svg\" style=\"height: 1.5em; float: left;\">&nbsp;",
            "p": 145,
            "traits": "Concentrate, Secret",
            "desc": "You attempt an Arcana check to try to remember a bit of knowledge regarding alchemical reactions, arcane theories, magic traditions, or creatures of alchemical or arcane significance. The GM determines the DCs for such checks.",
            "success": "You recall the knowledge accurately.",
            "critfailure": "You recall incorrect information."
        }],
        "trained": [{
            "name": "Borrow an Arcane Spell",
            "actions": "activity",
            "p": 145,
            "traits": "Concentrate",
            "desc": "If you're an arcane spellcaster who prepares spells, during your daily preparations, you can attempt to prepare a spell from someone else's spellbook. The GM sets the DC for the check (see Table 4&ndash;2 on page 146).",
            "success": "You prepare the borrowed spell as part of your normal spell preparation.",
            "failure": "You fail to prepare the spell, but the spell slot remains available for you to prepare a different spell. You can't try to prepare this spell until the next time you prepare spells."
        }, {
            "name": "Identify Magic",
            "actions": "activity",
            "p": "145-146",
            "traits": "Concentrate, Secret",
            "desc": "Once you discover that an item, location, or ongoing effect is magical, you can spend an hour to attempt to identify the particulars of its magic. If your attempt is interrupted, you must start over. The GM sets the DC for your check (see Table 4&ndash;2 on page 146). Cursed or esoteric subjects usually have higher DCs or might even be impossible to identify using Arcana alone. Heightening a spell doesn't increase the DC.",
            "success": "For an item or location, you get a sense of what it does and learn any means of activating it. For an ongoing effect, you learn the effect's name and what it does. You can't try again in hopes of getting a critical success.",
            "critsuccess": "You learn all the attributes of the magic, including whether it is cursed.",
            "failure": "You fail to identify the magic and can't try again for 1 day.",
            "critfailure": "You misidentify the magic as something else of the GM's choice."
        }, {
            "name": "Learn an Arcane Spell",
            "actions": "activity",
            "p": 146,
            "traits": "Concentrate",
            "desc": "If you are an arcane spellcaster, you can gain access to a new arcane spell from someone who knows that spell or from magical writing like a spellbook or scroll.</p><p>To learn the spell, you must do the following.<ul><li>Spend 1 hour per level of the spell, during which you must remain in conversation with the person who knows the spell or have the magical writing in your possession.</li><li>Have an amount of magical materials with a value indicated in Table 4&ndash;2 above.</li><li>Attempt an Arcana check with a DC determined by the GM (see Table 4&ndash;2 above).</li></ul>",
            "success": "You expend the materials and learn the spell. If you have a spellbook, the spell is added to your spellbook; if you prepare spells from a list, it's added to your list; if you have a spell repertoire, you can select it when you add or swap spells.",
            "critsuccess": "Per a success, but you expend only half the cost in materials.",
            "failure": "You fail to learn the spell but can try again after you gain a level. The materials aren't expended.",
            "critfailure": "Per a failure, plus you waste half the materials."
        }, {
            "name": "Read Magic",
            "actions": "activity",
            "p": 146,
            "traits": "Concentrate, Secret",
            "desc": "You can read and understand magic writing as long as it is in a language you can normally read. This usually takes about 1 minute per page of text, but it could take longer in the case of ancient or obscure writings, or in other situations at the GM's discretion. To read and understand the nuances of particularly archaic, esoteric, or obscure texts, the GM may require you to attempt an Arcana check to see if you understand the true meaning of the magic writing. The GM might have you attempt one check for the entire text or one check for each section of a larger text.",
            "success": "You understand the true meaning of the text.",
            "critfailure": "You misread the text."
        }]
    },
    "Athletics": {
        "ability": "Strength",
        "description": "Training in Athletics is the result of conditioning that allows you to perform deeds of physical prowess.",
        "untrained": [{
            "name": "Break Grapple",
            "actions": "one action",
            "actionicon": "<img src=\"/pathfinder/images/action-one.svg\" style=\"height: 1.5em; float: left;\">&nbsp;",
            "p": 146,
            "traits": "none",
            "desc": "You attempt to break an opponent's <a url=\"/pathfinder/pf2e/skills/athletics.html\">Grapple</a> with an Athletics check against that creature's Athletics DC.",
            "success": "You break free from your opponent's Grapple and remove the grabbed or restrained conditions you gained from it.",
            "critsuccess": "You remove the grabbed or restrained condition you gained from the opponent's Grapple, and you can either knock the opponent prone or grab the opponent as if you succeeded at a Grapple against that creature. If you grab the opponent, this action gains the attack trait.",
            "critfailure": "If you were grabbed, you become restrained. If you're already restrained, you can't attempt to Break a Grapple again until the start of your next turn."
        }, {
            "name": "Break Open",
            "actions": "one action",
            "actionicon": "<img src=\"/pathfinder/images/action-one.svg\" style=\"height: 1.5em; float: left;\">&nbsp;",
            "p": 146,
            "traits": "Attack",
            "desc": "Using your body, a lever, or some other tool, you attempt to forcefully open a door, window, or container; lift a heavy gate; or break open some kind of bonds restraining your mobility. With a high enough result, you can even smash through walls.",
            "success": "You break the door, window, or container open, and the door, window, or container gains the broken condition.",
            "critsuccess": "You open the door, window, or container but can avoid damaging it in the process.",
            "critfailure": "Your attempt jams the door, window, or container shut, imposing a &ndash;2 circumstance penalty on all future attempts to open it."
        }, {
            "name": "Climb",
            "actions": "one action",
            "actionicon": "<img src=\"/pathfinder/images/action-one.svg\" style=\"height: 1.5em; float: left;\">&nbsp;",
            "p": 146,
            "traits": "Move",
            "desc": "You move up, down, or across an incline. Unless the climb is particularly easy, you must attempt an Athletics check. The DC is determined by the GM based on the nature of the incline and any environmental circumstances. If you fall, the <a url=\"/pathfinder/pf2e/skills/acrobatics.html\">Grab Edge</a> use of Acrobatics might allow you to catch yourself. You are <a url=\"/pathfinder/pf2e/conditions.html\">flat-footed</a> while climbing unless you have a climb Speed.",
            "requirements": "You have both hands free.",
            "success": "You move 5 feet up, across, or safely down the incline. If your Speed is 40 feet or greater, you move 10 feet instead.",
            "critsuccess": "You move half your Speed up, across, or safely down the incline.",
            "critfailure": "You fall (see page 310). If you began the climb on stable ground, you fall and land prone."
        }, {
            "name": "Grapple",
            "actions": "one action",
            "actionicon": "<img src=\"/pathfinder/images/action-one.svg\" style=\"height: 1.5em; float: left;\">&nbsp;",
            "p": 146,
            "traits": "Attack",
            "desc": "You attempt to grab an opponent. Grappling requires you to roll an Athletics check against the opponent's Fortitude DC.",
            "requirements": "You have at least one free hand. Your target cannot be more than two sizes larger than you.",
            "success": "Your opponent is grabbed until the end of your next turn unless you move or your opponent Escapes using Acrobatics or Breaks the Grapple with Athletics.",
            "critsuccess": "Your opponent is restrained until the end of your next turn unless you move or your opponent gets loose.",
            "failure": "You fail to grab your opponent. If you already had the opponent grabbed or restrained by way of a Grapple, those conditions on that creature end.",
            "critfailure": "If you already had the opponent grabbed or restrained, she gets free. Your target can grab you as if she succeeded at the Grapple action against you or force you to fall and land prone."
        }, {
            "name": "High Jump",
            "actions": "activity (two actions)",
            "actionicon": "<img src=\"/pathfinder/images/action-two.svg\" style=\"height: 1.5em; float: left;\">&nbsp;",
            "p": 147,
            "traits": "none",
            "desc": "You <a url=\"/pathfinder/pf2e/actions.html\">Stride</a>, and if you move at least 10 feet, roll a DC 30 Athletics check in an attempt to <a url=\"/pathfinder/pf2e/actions.html\">Leap</a> vertically. This DC might be increased or decreased due to the situation, as determined by the GM.",
            "success": "You Leap, increasing the vertical distance to 5 feet.",
            "critsuccess": "You Leap, increasing your vertical distance to 8 feet or increasing your vertical distance to 5 feet and your horizontal distance to 10 feet.",
            "failure": "You Leap the maximum height allowed by the Leap action.",
            "critfailure": "Instead of Leaping, you fall prone in your space."
        }, {
            "name": "Long Jump",
            "actions": "activity (two actions)",
            "actionicon": "<img src=\"/pathfinder/images/action-two.svg\" style=\"height: 1.5em; float: left;\">&nbsp;",
            "p": 147,
            "traits": "none",
            "desc": "You <a url=\"/pathfinder/pf2e/actions.html\">Stride</a>, and if you move at least 10 feet, roll an Athletics check in an attempt to <a url=\"/pathfinder/pf2e/actions.html\">Leap</a> horizontally in the same direction. The DC of the check is equal to 5 plus the total distance in feet you're attempting to move during your <a url=\"/pathfinder/pf2e/actions.html\">Leap</a> (so Leaping 20 feet would require a DC 25 check). You can't <a url=\"/pathfinder/pf2e/actions.html\">Leap</a> farther than your Speed. This DC might be increased or decreased due to the situation, as determined by the GM.",
            "success": "You Leap, increasing the distance you move horizontally to the desired distance.",
            "failure": "You Leap the maximum distance allowed by the Leap action.",
            "critfailure": "You Leap the maximum distance allowed by the Leap action, then fall prone."
        }, {
            "name": "Shove",
            "actions": "one action",
            "actionicon": "<img src=\"/pathfinder/images/action-one.svg\" style=\"height: 1.5em; float: left;\">&nbsp;",
            "p": 147,
            "traits": "Attack",
            "desc": "You push an opponent away from you. Attempt an Athletics check against your opponent's Fortitude DC.",
            "requirements": "You have at least one hand free. The target can't be more than two sizes larger than you.",
            "success": "You push your opponent back 5 feet. You can move 5 feet in the same direction as your opponent. If you do, this action gains the move trait.",
            "critsuccess": "You push your opponent up to 10 feet back. You can move 10 feet in the same direction as your opponent. If you do, this action gains the move trait.",
            "critfailure": "You lose your balance, fall, and land prone."
        }, {
            "name": "Swim",
            "actions": "one action",
            "actionicon": "<img src=\"/pathfinder/images/action-one.svg\" style=\"height: 1.5em; float: left;\">&nbsp;",
            "p": 147,
            "traits": "Move",
            "desc": "You use your arms and legs to swim through water. In most calm water, you succeed at the action without needing to attempt a check. If you must breathe air and you're submerged in water, you must hold your breath each round. If you fail to hold your breath, you begin to drown (as described on page 315). If the water you are swimming in is turbulent or otherwise dangerous, you might have to attempt an Athletics check to Swim.</p> <p>If you end your turn in the water and haven't succeeded at a Swim action that turn, you sink down 10 feet or float up 10 feet, as determined by the GM. However, if your last action on your turn was to enter the water, you don't sink or float that turn.",
            "success": "You move 5 feet horizontally through the water. If your Speed is 15 feet or greater, you move 10 feet instead, and if your Speed is 60 feet or greater, you move 15 feet instead. You can swim upward or downward, but doing so counts as moving through difficult terrain.",
            "critsuccess": "Per a success, but you can move an additional 5 feet.",
            "critfailure": "You make no progress, and this action counts as 2 actions holding your breath."
        }, {
            "name": "Trip",
            "actions": "one action",
            "actionicon": "<img src=\"/pathfinder/images/action-one.svg\" style=\"height: 1.5em; float: left;\">&nbsp;",
            "p": 147,
            "traits": "Attack",
            "desc": "You try to knock an opponent to the ground. Attempt an Athletics check against the target's Reflex DC.",
            "requirements": "You have at least one hand free. The target can't be more than two sizes larger than you.",
            "success": "The target falls prone.",
            "critsuccess": "The target falls prone and takes 1d6 bludgeoning damage.",
            "critfailure": "You lose your balance and fall, and land prone."
        }],
        "trained": [{
            "name": "Disarm",
            "actions": "one action",
            "actionicon": "<img src=\"/pathfinder/images/action-one.svg\" style=\"height: 1.5em; float: left;\">&nbsp;",
            "p": 147,
            "traits": "Attack",
            "desc": "You try to knock something out of an opponent's grasp. A Disarm attack requires you to roll an Athletics check against the opponent's Reflex DC.",
            "requirements": "You have at least one hand free. The target can't be more than two sizes larger than you.",
            "success": "You weaken your opponent's grasp on the item. Until the start of that creature's turn, attempts to Disarm the opponent of that item get a +2 circumstance bonus.",
            "critsuccess": "You knock the item out of the opponent's grasp. It falls to the ground in the opponent's space.",
            "critfailure": "You lose your balance and become flat-footed until the start of your next turn."
        }]
    },
    "Crafting": {
        "ability": "Intelligence",
        "description": "You can use this skill to create and repair items.",
        "untrained": [{
            "name": "Repair",
            "actions": "activity",
            "p": "147-148",
            "traits": "Manipulate",
            "desc": "You spend an hour attempting to fix a dented or broken item. The GM sets the DC, but typically it's more difficult to Repair a high quality or magic item. You can't Repair a destroyed item.",
            "requirements": "You must use a repair kit (see page 187).",
            "success": "You remove 1 Dent from the item. In most cases, a dented item becomes fully restored and a broken item becomes only dented.",
            "critsuccess": "You fully restore the item.",
            "critfailure": "You dent the item. If the item is magical, this Dent can't destroy it."
        }],
        "trained": [{
            "name": "Craft",
            "actions": "activity",
            "p": 148,
            "traits": "Downtime, Manipulate",
            "desc": "You can make an item from raw materials. The GM determines the DC to Craft an item, which is based on its level, quality, and rarity, and might be affected by other circumstances. You need the Alchemical Crafting skill feat (page 162) to create alchemical items, the Magical Crafting skill feat (page 168) to create magic items, and the Snare Crafting feat (page 171) to create snares.</p><p>To Craft an item, you must meet the following requirements:<ul><li>The item is your level or lower. (An item that doesn't list a level is level 0.)</li><li>You have the proficiency rank appropriate to the item's quality. (See page 190.)</li><li>You have the formula for the item.</li><li>You have an appropriate set of tools and, in many cases, a workshop. For example, you need access to a smithy to forge a metal shield.</li><li>You must supply raw materials worth at least half the item's Price. You always expend at least that amount of raw materials when you Craft successfully. If you're in a settlement, you can usually spend currency to get an equal amount of raw materials you need, except in the case of rarer special materials.</li></ul></p><p>You need to spend a minimum number of downtime days to Craft your item to a basic state of completion. This number depends on your level and the level of the item. You need to spend 4 downtime days for an item of your level. Reduce the number of days by 1 for each level by which your level exceeds the item's level, to a minimum of 1 day. After spending this base number of days, you can either expend more materials to complete the item immediately or spend more days Crafting, completing the item more slowly but at lower cost. The success entry explains this mechanic further.</p><p>You can Craft items with the consumable trait in batches, making up to four of the same item simultaneously. This requires you to include the raw materials for all the items in the batch at the start, and you must complete the batch all at once.</p> <p>After you expend the required amount of raw materials and base downtime, attempt a Crafting check. If you fail or critically fail, you can try to Craft the item again, but you have to start over.",
            "success": "Your attempt to create the item is successful. You can pay the remaining half of the item's Price to complete it immediately, or spend additional downtime days working on it. For each additional day you spend, reduce the value of the materials you need to expend to complete the item by an amount based on your level and proficiency rank (see Table 4&ndash;3). After any of these downtime days, you can complete the item by spending the remaining amount. If your downtime days are interrupted, you can return to finish the item later, continuing right where you left off.",
            "critsuccess": "Per a success, but each day you spend working reduces the remaining raw materials cost as though your level were 1 higher.",
            "failure": "You fail to complete the item. You can salvage the raw materials you supplied for their full value.",
            "critfailure": "You fail to complete the item. You ruin 10% of the raw materials you supplied, but can salvage the rest."
        }, {
            "name": "Identify Alchemy",
            "actions": "activity",
            "p": 148,
            "traits": "Concentrate, Secret",
            "desc": "You can identify the nature of an alchemical item with 10 minutes of testing using alchemist's tools (see page 184 in Chapter 6: Equipment). The DC of the check is 10 plus the level of the item. If your attempt is interrupted in any way, you must start over.",
            "requirements": "You must use alchemist's tools (see page 184).",
            "success": "You identify the item and the means of activating it.",
            "failure": "You fail to identify the item but can try again.",
            "critfailure": "You misidentify the item as another item of the GM's choice."
        }]
    },
    "Deception": {
        "ability": "Charisma",
        "description": "You can trick and bamboozle others through disguises, lies, and other forms of subterfuge.",
        "untrained": [{
            "name": "Create a Diversion",
            "actions": "one action",
            "actionicon": "<img src=\"/pathfinder/images/action-one.svg\" style=\"height: 1.5em; float: left;\">&nbsp;",
            "p": "148-149",
            "traits": "Mental",
            "desc": "With a gesture, a trick, or some distracting words, you can create a diversion that draws creatures' attention elsewhere. If you use a gesture or trick, this action gains the manipulate trait. If you use distracting words, it gains the auditory and lingual traits.</p><p>Attempt a single Deception check and compare it to the Perception DCs of the creatures whose attention you're attempting to divert. Whether you succeed or fail, creatures you attempt to affect gain a +4 circumstance bonus to their Perception DCs against your attempts to Create a Diversion for 1 minute.",
            "success": "You become merely sensed, rather than seen, with regard to each creature whose Perception DC your result meets or exceeds. This lasts until the end of your turn or until you act to do anything except Step or use the Hide or Sneak actions of the Stealth skill (see page 158). If you do anything else, your sensed condition ends just before you act. For instance, if you succeed at a Deception check, momentarily becoming sensed by a creature (rather than seen), and then attack that creature, it is not flat-footed against your attack.",
            "failure": "You don't divert the attention of any creatures whose Perception DC exceeds your result, and those creatures are aware you were trying to trick them."
        }, {
            "name": "Impersonate",
            "actions": "activity",
            "p": 149,
            "traits": "Concentrate, Manipulate",
            "desc": "You create a disguise to pass yourself off as someone or something you are not. Putting together a decent disguise takes 10 minutes and requires a disguise kit (see page 184), but a simpler, quicker disguise might do the job if you're not trying to imitate a specific individual, at the GM's discretion.</p><p>In most cases, creatures have a chance to detect you only if they use the <a url=\"/pathfinder/pf2e/actions.html\">Seek</a> action to roll Perception checks against your Deception DC. If you attempt to directly interact with someone while disguised, you need to roll a secret Deception check against that creature's Perception DC instead. If you're disguised as a specific individual, the GM might give creatures you interact with a bonus based on how well they know the person you're imitating, or ask you to roll a secret Deception check even if you aren't directly interacting with them.",
            "success": "You trick the creature into thinking you're the person you're disguised as. You might have to attempt a new check if your behavior changes.",
            "failure": "The creature can tell you're not who you claim to be."
        }, {
            "name": "Lie",
            "actions": "activity",
            "p": 149,
            "traits": "Auditory, Concentrate, Lingual, Mental, Secret",
            "desc": "You try to fool someone with an untruth. Doing so takes at least 1 round, or longer if the lie is elaborate. You roll a single Deception check and compare it against the Perception DC of every creature you are trying to fool. The GM may modify this DC based on the situation and the nature of the lie you are trying to tell. Elaborate or highly unbelievable lies are much harder to get a creature to believe than simpler and more believable lies, and some lies are so big it's impossible to get anyone to believe them.</p><p>At the GM's discretion, if a creature initially believes your lie, it might still be able to attempt a Perception check against your Deception DC (success on the creature's part gains the failure effect below) to realize it's a lie. This usually happens if the creature discovers enough evidence to counter your statements.",
            "success": "The target believes your lie.",
            "failure": "The target doesn't believe your lie and gains a +4 circumstance bonus to Perception checks against further attempts by you to Lie to it for the duration of your conversation. The target is also more likely to be suspicious of you in the future."
        }],
        "trained": [{
            "name": "Feint",
            "actions": "one action",
            "actionicon": "<img src=\"/pathfinder/images/action-one.svg\" style=\"height: 1.5em; float: left;\">&nbsp;",
            "p": 150,
            "traits": "Mental",
            "desc": "With a misleading flourish, you leave an opponent unprepared for your real attack. You attempt a Deception check against that opponent's Perception DC.",
            "requirements": "You are within melee reach of the target.",
            "success": "The target is flat-footed against the next melee attack that you attempt against it before the end of your current turn.",
            "critsuccess": "The target is flat-footed against all melee attacks you attempt against it until the end of your next turn.",
            "critfailure": "You are flat-footed against melee attacks the target attempts against you until the end of your next turn."
        }]
    },
    "Diplomacy": {
        "ability": "Charisma",
        "description": "You influence others through negotiation and flattery.",
        "untrained": [{
            "name": "Gather Information",
            "actions": "activity",
            "p": 150,
            "traits": "Downtime, Secret",
            "desc": "You canvass local markets, taverns, and gathering places in an attempt to learn about a specific individual or topic. The GM determines the DC of the check and the amount of time it takes (typically if you spend an entire day of downtime to Gather Information, you can attempt three or four checks), along with any benefit you might be able to gain by spending coin on bribes, drinks, or gifts.",
            "success": "You collect information about the individual or topic. The GM determines the specifics.",
            "critfailure": "You collect incorrect information about the individual or topic."
        }, {
            "name": "Make an Impression",
            "actions": "activity",
            "p": 150,
            "traits": "Auditory, Concentrate, Lingual, Mental",
            "desc": "With at least 1 minute of conversation consisting of charismatic overtures, flattery, and other acts of goodwill, you seek to make a good impression on someone to make them temporarily agreeable. At the end of the conversation, attempt a Diplomacy check against the target's Will DC, modified by any circumstances the GM sees fit. Good impressions (or bad impressions, on a critical failure) last for only the current social encounter unless the GM decides otherwise. The attitudes are listed in the <a url=\"/pathfinder/pf2e/conditions.html\">Conditions</a> section (see page 319). The attempt fails if the target can't understand you.",
            "success": "The target's attitude toward you improves by one step (from hostile to unfriendly, from unfriendly to indifferent, from indifferent to friendly, or from friendly to helpful).",
            "critsuccess": "The target's attitude toward you improves by two steps (from hostile to indifferent, from unfriendly to friendly, or from indifferent or friendly to helpful).",
            "critfailure": "The target's attitude toward you decreases by one step (from helpful to friendly, from friendly to indifferent, from indifferent to unfriendly, or from unfriendly to hostile.)"
        }, {
            "name": "Request",
            "actions": "one action",
            "actionicon": "<img src=\"/pathfinder/images/action-one.svg\" style=\"height: 1.5em; float: left;\">&nbsp;",
            "p": 150,
            "traits": "Auditory, Concentrate, Lingual, Mental",
            "desc": "You can make a request of a creature that's <a url=\"/pathfinder/pf2e/traits.html\">friendly</a> or <a url=\"/pathfinder/pf2e/traits.html\">helpful</a> to you. You must couch the request in terms that the target would accept given their current attitude toward you. The GM sets the DC based on the difficulty of the request. Some requests are unsavory or impossible, and even a <a url=\"/pathfinder/pf2e/traits.html\">helpful</a> NPC would never agree to them.",
            "success": "The target agrees to your request, but might demand added provisions or alterations to the request.",
            "critsuccess": "The target agrees to your request without qualifications, or agrees to a request that would ordinarily require it to have an attitude one step better toward you.",
            "failure": "The target refuses the request, though she might propose an alternative that is less extreme.",
            "critfailure": "Not only does target refuse the request, but her attitude toward you also decreases by one step due to the temerity of the request."
        }],
        "trained": []
    },
    "Intimidation": {
        "ability": "Charisma",
        "description": "You bend others to your will through threats.",
        "untrained": [{
            "name": "Demoralize",
            "actions": "one action",
            "actionicon": "<img src=\"/pathfinder/images/action-one.svg\" style=\"height: 1.5em; float: left;\">&nbsp;",
            "p": "150-151",
            "traits": "Auditory, Concentrate, Emotion, Lingual, Mental",
            "desc": "With a sudden shout, a well-timed taunt, or a cutting put-down, you can shake an enemy's resolve. Choose a creature within 30 feet of you who you sense or see and who can sense or see you. Attempt an Intimidation check against that target's Will DC. If the target does not understand the language you are speaking, you're not speaking a language, or they can't hear you, you take a &ndash;4 circumstance penalty to the check and demoralize loses the lingual trait.",
            "success": "The target becomes frightened 1.",
            "critsuccess": "The target becomes frightened 2 and is fleeing until the end of its next turn.",
            "critfailure": "You can't attempt to demoralize the target again for 10 minutes."
        }, {
            "name": "Coerce",
            "actions": "activity",
            "p": 150,
            "traits": "Auditory, Concentrate, Emotion, Lingual, Mental",
            "desc": "With threats either veiled or overt, you attempt to intimidate a creature into doing what you want. You must spend at least 1 minute of conversation with a creature you can see and who can either see or sense you. At the end of the conversation, you attempt an Intimidation check against the target's Will DC, modified by the circumstances at the GM's discretion. The attitudes referenced in the effects are listed in <a url=\"/pathfinder/pf2e/conditions.html\">Conditions</a> (see page 318).",
            "success": "The target gives you the information you seek or agrees to follow your directives so long as they aren't likely to harm the target in any way. The target continues to comply for an amount of time determined by the GM but not exceeding 1 day, at which point the target becomes unfriendly (if it wasn't already unfriendly or hostile) and might act against you, including reporting you to the authorities.",
            "critsuccess": "Per a success, but even afterward, the target is too scared of you to retaliate against you.",
            "failure": "The target doesn't do what you say, and if it was not already unfriendly or hostile, it becomes unfriendly.",
            "critfailure": "The target doesn't attempt the request, becomes hostile if it wasn't already, and can't be coerced by you for at least 1 week."
        }],
        "trained": []
    },
    "Lore": {
        "ability": "Intelligence",
        "description": "You have specialized information on a narrow topic. Lore is different than other skills in two ways.</p><p>First, the lore skill features many subcategories. You might have Military Lore, Sailing Lore, Vampire Lore, or any similar subcategory of skill. Each subcategory counts as its own skill, so applying a skill increase to Planar Lore wouldn't increase your modifier with Sailing Lore. You gain a subcategory of the Lore skill from your background. The GM determines what other subcategories she'll allow as Lore skills, though these categories are always less broad than any of the other skills that allow you to Recall Knowledge, and they should never be able to fully take the place of another skill's ability to Recall Knowledge. For instance, you couldn't choose Magic Lore in an attempt to recall the same breadth of knowledge covered by Arcana or Adventuring Lore in an attempt to gain all the information an adventurer would need.</p><p>Second, all of your Lore skills are signature skills (see page 144). This means that you can advance them to expert or legendary proficiency if you so choose.</p><p>If you have multiple subcategories of Lore that could apply to a check, or that would overlap with another skill in the circumstances, you can choose to use the skill with the better skill modifier or that you would prefer to use. If there's any doubt whether a Lore skill applies to a specific topic or use, the GM decides whether it can be used or not.",
        "untrained": [{
            "name": "Recall Knowledge",
            "actions": "one action",
            "actionicon": "<img src=\"/pathfinder/images/action-one.svg\" style=\"height: 1.5em; float: left;\">&nbsp;",
            "p": 151,
            "traits": "Concentrate, Secret",
            "desc": "You can use Lore to remember a bit of knowledge related to your type of Lore. The GM determines the DCs for such checks and whether your Lore applies to the topic.",
            "success": "You recall the knowledge.",
            "critfailure": "You recall erroneous knowledge."
        }],
        "trained": [{
            "name": "Practice a Trade",
            "actions": "activity",
            "p": "151-152",
            "traits": "Downtime",
            "desc": "You apply the practical benefits of your Lore specialty to earn money during periods of downtime. Practicing a Trade is most effective with Lore specialties such as business, law, or sailing, where there's demand for workers. The GM might increase the DC if you're attempting to use an obscure Lore skill to practice a trade.</p><p>The GM assigns a task level representing the difficulty of the most lucrative job available. You can go looking for lower-level tasks, with the GM determining whether you find any. Sometimes you can attempt to find better work than the initial offerings, though this requires spending downtime to <a url=\"/pathfinder/pf2e/skills/diplomacy.html\">Gather Information</a> or researching and socializing.</p><p>When you take on a job, the GM sets the DC of your Lore check. The amount of money you can earn depends on the task level and your proficiency rank, as listed on Table 4&ndash;4: Skill Income. You might also need specialized tools to accept a job, like mining tools to work in a mine or a merchant's scale to buy and sell valuables in a market.</p><p>You need to spend a minimum number of downtime days to locate and secure the job, prepare to practice your trade, and get started on the task. This number depends on your level and the level of the task. You must spend 4 downtime days for a task of your level. Reduce the number of days by 1 for each level lower than you the task is, to a minimum of 1 day. Conversely, increase the number of days by 1 for each level higher than you the task is. After this base downtime, you earn your initial amount of money, and you can continue at the task to keep earning more. The success entry explains how this works. Note that if you want to earn money for working just 1 day, you need to pick a task that requires only 1 day of preparation. A 0-level task always requires 1 day.</p><p>After you spend the base downtime to get started, roll your Lore check to determine your earnings. You continue to earn that amount each day for the duration of the job, without requiring further checks. The GM determines how long the job lasts, which is limited by how long the task will take to complete and other factors. Most tasks last a week or two, though some can take months or even years. If you stop in the middle of a task, normally you have to find a new task when you return, but the GM might decide that you can pick up where you left off (which usually happens only if the job is incomplete and the setup you did is still applicable).",
            "success": "You do competent work and gain the amount of currency listed on Table 4&ndash;4: Skill Income for the task level and your proficiency rank. You can spend further downtime days working at this job, earning the same amount each day, up to the task's completion.",
            "critsuccess": "You excel at the task. Per a success, but you earn money as though the task were 1 level higher. The GM might extend how long you can stay employed at the task.",
            "failure": "You do shoddy work and get paid the bare minimum for your time. You earn the amount listed in the failure column of Table 4&ndash;4: Skill Income. The GM will likely reduce how long you can continue at the task.",
            "critfailure": "You earn nothing for your work and are fired immediately. Your reputation suffers, potentially making it difficult for you to find rewarding jobs in that community in the future."
        }]
    },
    "Medicine": {
        "ability": "Wisdom",
        "description": "You can patch up wounds and help people recover from diseases and poisons.",
        "untrained": [{
            "name": "Administer First Aid",
            "actions": "one action",
            "actionicon": "<img src=\"/pathfinder/images/action-one.svg\" style=\"height: 1.5em; float: left;\">&nbsp;",
            "p": 152,
            "traits": "Manipulate",
            "desc": "You perform first aid on an adjacent creature that is at 0 Hit Points in an attempt to stabilize or revive it. You can also perform first aid on an adjacent creature taking persistent bleed damage. The DC for either is 15. If a creature is both <a url=\"/pathfinder/pf2e/traits.html\">dying</a> and bleeding, choose which one you're trying to end before you roll. You can Administer First Aid again to attempt to remedy the other.",
            "requirements": "You must have healer's tools (see page 186).",
            "success": "The creature at 0 Hit Points gains 1 Hit Point, or you end the persistent bleed damage (see page 323).",
            "critfailure": "A creature with 0 Hit Points has its dying condition increased by 1. A creature with persistent bleed damage takes damage equal to the amount of its persistent bleed damage."
        }],
        "trained": [{
            "name": "Treat Disease",
            "actions": "activity",
            "p": 152,
            "traits": "Downtime, Manipulate",
            "desc": "You spend at least 8 hours caring for a diseased creature, helping it fight off a malady. Attempt a Medicine check against the disease's DC.",
            "requirements": "You must have healer's tools (see page 186).",
            "success": "You grant the creature a +2 circumstance bonus to its next saving throw against the disease.",
            "critsuccess": "You grant the creature a +4 circumstance bonus to its next saving throw against the disease.",
            "critfailure": "Your efforts cause the creature to take a &ndash;2 circumstance penalty to its next save against the disease."
        }, {
            "name": "Treat Poison",
            "actions": "one action",
            "actionicon": "<img src=\"/pathfinder/images/action-one.svg\" style=\"height: 1.5em; float: left;\">&nbsp;",
            "p": 152,
            "traits": "Manipulate",
            "desc": "You apply specialized treatments to prevent the spread of poison. Roll a Medicine check against the poison's DC.",
            "requirements": "You must have healer's tools (see page 186).",
            "success": "You grant the creature a +2 circumstance bonus to its next saving throw against the poison.",
            "critsuccess": "You grant the creature a +4 circumstance bonus to its next saving throw against the poison.",
            "critfailure": "Your efforts cause the creature to take a &ndash;2 circumstance penalty to its next save against the poison."
        }]
    },
    "Nature": {
        "ability": "Wisdom",
        "description": "You know a great deal about the natural world, and you can command and train animals and magical beasts.",
        "untrained": [{
            "name": "Command an Animal",
            "actions": "one action",
            "actionicon": "<img src=\"/pathfinder/images/action-one.svg\" style=\"height: 1.5em; float: left;\">&nbsp;",
            "p": 153,
            "traits": "Auditory, Concentrate",
            "desc": "You issue an order to an animal that's obeying you, either because you previously used <a>Handle an Animal</a> successfully (see below) or you have the Ride feat (see page 170). Most animals know the <a url=\"/pathfinder/pf2e/actions.html\">Leap</a>, <a url=\"/pathfinder/pf2e/actions.html\">Seek</a>, <a url=\"/pathfinder/pf2e/actions.html\">Stand</a>, <a url=\"/pathfinder/pf2e/actions.html\">Stride</a>, and <a url=\"/pathfinder/pf2e/actions.html\">Strike</a> basic actions. If an animal knows an activity, such as a horse's Gallop, you can command the animal to perform the activity, but you must spend as many Command an Animal actions as the activity's number of actions. The animal uses the action you command.</p><p>Most animals understand only the simplest instructions, so you might be able to instruct your animal to move to a certain square but not dictate a specific path to get there, or command it to attack a certain creature but not to make its attack nonlethal. The GM decides the specifics of the action your animal uses."
        }, {
            "name": "Handle an Animal",
            "actions": "one action",
            "actionicon": "<img src=\"/pathfinder/images/action-one.svg\" style=\"height: 1.5em; float: left;\">&nbsp;",
            "p": 153,
            "traits": "Auditory, Concentrate",
            "desc": "You prepare a <a url=\"/pathfinder/pf2e/traits.html\">helpful</a> animal to accept your commands. If you are trained in Nature, you can use Handle an Animal on a <a url=\"/pathfinder/pf2e/traits.html\">friendly</a> or <a url=\"/pathfinder/pf2e/traits.html\">indifferent</a> animal as well.",
            "success": "Until the end of your turn, you can use the Command the Animal action to direct the animal. You can Mount the animal (see page 309)."
        }, {
            "name": "Recall Knowledge",
            "actions": "one action",
            "actionicon": "<img src=\"/pathfinder/images/action-one.svg\" style=\"height: 1.5em; float: left;\">&nbsp;",
            "p": 153,
            "traits": "Concentrate, Secret",
            "desc": "You can use Nature to remember a bit of knowledge on flora, fauna, geography, weather, the environment, or creatures of natural significance. The GM determines the DCs for such checks.",
            "success": "You recall the knowledge accurately.",
            "critfailure": "You recall incorrect information."
        }],
        "trained": [{
            "name": "Identify Magic",
            "actions": "activity",
            "p": 153,
            "traits": "Concentrate, Secret",
            "desc": "Once you discover that an item, ongoing effect, or location is magical, you can spend an hour to attempt to identify the nature and particulars of its magic. If your attempt is interrupted in any way, you must start over. The GM sets the DC for your check (see Table 4&ndash;2 on page 146). Cursed or particularly esoteric items usually have higher DCs or might even be impossible to identify using Nature alone. Heightening a spell doesn't increase the DC.",
            "success": "For an item or location, you get a sense of what it does and learn any means of activating it. For an ongoing effect, you learn the effect's name and what it does. You can't try again in hopes of getting a critical success.",
            "critsuccess": "You learn all the attributes of the magic, including whether it is cursed.",
            "failure": "You fail to identify the magic and can't try again for 1 day.",
            "critfailure": "You misidentify the magic as something else of the GM's choice."
        }, {
            "name": "Learn a Primal Spell",
            "actions": "activity",
            "p": 154,
            "traits": "Concentrate",
            "desc": "If you are a primal spellcaster, you can gain access to a new primal spell from someone who knows that spell or from magical writing like a spellbook or scroll.</p><p>To learn the spell, you must do the following.<ul><li>Spend 1 hour per level of the spell, during which you must remain in conversation with the person who knows the spell or have the magical writing in your possession.</li><li>Have an amount of magical materials with a value indicated in Table 4&ndash;2 on page 146.</li><li>Attempt a Nature check with a DC determined by the GM (see Table 4&ndash;2).</li></ul>",
            "success": "You expend the materials and learn the spell. If you have a spellbook, the spell is added to your spellbook; if you prepare spells from a list, it's added to your list; if you have a spell repertoire, you can select it when you add or swap spells.",
            "critsuccess": "Per a success, but you expend only half the cost in materials.",
            "failure": "You fail to learn the spell but can try again after you gain a level. The materials aren't expended.",
            "critfailure": "Per a failure, plus you waste half the materials."
        }]
    },
    "Occultism": {
        "ability": "Intelligence",
        "description": "You have a great deal of knowledge about ancient philosophies, esoteric lore, obscure mysticism, and supernatural creatures.",
        "untrained": [{
            "name": "Recall Knowledge",
            "actions": "one action",
            "actionicon": "<img src=\"/pathfinder/images/action-one.svg\" style=\"height: 1.5em; float: left;\">&nbsp;",
            "p": 154,
            "traits": "Concentrate, Secret",
            "desc": "You can use Occultism to remember a bit of knowledge regarding ancient mysteries, obscure philosophy, or creatures of occult significance. The GM determines the DCs for such checks.",
            "success": "You recall the knowledge accurately.",
            "critfailure": "You recall incorrect information."
        }],
        "trained": [{
            "name": "Identify Magic",
            "actions": "activity",
            "p": 154,
            "traits": "Concentrate, Secret",
            "desc": "Once you discover that an item, ongoing effect, or location is magical, you can spend an hour to attempt to identify the particulars of its magic. If your attempt is interrupted, you must start over. The GM sets the DC for your check (see Table 4&ndash;2 on page 146). Cursed or esoteric items usually have higher DCs or might even be impossible to identify using Occultism alone. Heightening a spell doesn't increase the DC.",
            "success": "For an item or location, you get a sense of what it does and learn any means of activating it. For an ongoing effect, you learn the effect's name and what it does. You can't try again in hopes of getting a critical success.",
            "critsuccess": "You learn all the attributes of the magic, including whether it is cursed.",
            "failure": "You fail to identify the magic and can't try again for 1 day.",
            "critfailure": "You misidentify the magic as something else of the GM's choice."
        }, {
            "name": "Learn an Occult Spell",
            "actions": "activity",
            "p": 154,
            "traits": "Concentrate",
            "desc": "If you are an occult spellcaster, you can gain access to a new occult spell from someone who knows that spell or from magical writing like a spellbook or scroll.</p><p>To learn the spell, you must do the following.<ul><li>Spend 1 hour per level of the spell, during which you must remain in conversation with the person who knows the spell or have the magical writing in your possession.</li><li>Have an amount of magical materials with a value indicated in Table 4&ndash;2 on page 146.</li><li>Attempt an Occultism check with a DC determined by the GM (see Table 4&ndash;2).</li></ul>",
            "success": "You expend the materials and learn the spell. If you have a spellbook, the spell is added to your spellbook; if you prepare spells from a list, it's added to your list; if you have a spell repertoire, you can select it when you add or swap spells.",
            "critsuccess": "Per a success, but you expend only half the cost in materials.",
            "failure": "You fail to learn the spell but can try again after you gain a level. The materials aren't expended.",
            "critfailure": "Per a failure, plus you waste half the materials."
        }, {
            "name": "Read Esoterica",
            "actions": "activity",
            "p": 154,
            "traits": "COncentrate, Secret",
            "desc": "You can read and understand occult writing, including complex metaphysical systems, syncretic principles, and incoherent ramblings, as long as it is in a language you can normally read. This usually takes about 1 minute per page of text. To read and understand the nuances of particularly archaic, esoteric, or obscure texts, the GM may require you to attempt an Occultism check to see if you understand the true meaning of the esoterica. The GM might have you attempt one check for the entire text or one check for each section of a larger text.",
            "success": "You understand the true meaning of the text.",
            "critfailure": "You misread the text."
        }]
    },
    "Performance": {
        "ability": "Charisma",
        "description": "With this skill you can perform in front of crowds.</p><p>Some performances require you to be more than just charismatic, and if you don't meet the demands of the art form or the audience, the GM might apply a penalty based on the relevant ability score. For example, if you're dancing and have a &ndash;1 Dexterity modifier, that penalty might apply to your dancing attempt. Likewise, if you are orating and have a &ndash;1 Intelligence modifier, you might have to hope your raw Charisma can overcome your intellectual shortcomings&mdash;or ask someone to help write your speeches!</p><p>When you use an action or activity that utilizes the Performance skill, it gains one or more traits relevant to the type of performance. The GM might change these depending on the circumstances, but the most common performance-based traits are given below.</p><p>Act or perform comedy: Usually <a url=\"/pathfinder/pf2e/traits.html\">auditory</a>, <a url=\"/pathfinder/pf2e/traits.html\">lingual</a>, and <a url=\"/pathfinder/pf2e/traits.html\">visual</a></p><p>Dance: <a url=\"/pathfinder/pf2e/traits.html\">Move</a> and <a url=\"/pathfinder/pf2e/traits.html\">visual</a></p><p>Play an instrument: <a url=\"/pathfinder/pf2e/traits.html\">Auditory</a> and <a url=\"/pathfinder/pf2e/traits.html\">manipulate</a></p><p>Orate or sing: <a url=\"/pathfinder/pf2e/traits.html\">Auditory</a> and <a url=\"/pathfinder/pf2e/traits.html\">lingual</a>",
        "untrained": [{
            "name": "Perform",
            "actions": "one action",
            "actionicon": "<img src=\"/pathfinder/images/action-one.svg\" style=\"height: 1.5em; float: left;\">&nbsp;",
            "p": 155,
            "traits": "Concentrate",
            "desc": "When making a brief performance&mdash;one song, a quick dance, or a few jokes&mdash;you use the Perform action. This action is most useful when you want to prove your capability or impress someone quickly. Performing rarely has an impact on its own (unless you're in a contest), but doing so might influence the DCs of subsequent Diplomacy checks against the observers if the GM sees fit.",
            "success": "You prove yourself, and observers appreciate the quality of your performance.",
            "critsuccess": "Your performance impresses the observers, and they're likely to share stories of your ability.",
            "failure": "Your performance falls flat.",
            "critfailure": "You demonstrate only incompetence."
        }],
        "trained": [{
            "name": "Stage a Performance",
            "actions": "activity",
            "p": "155-156",
            "traits": "Downtime",
            "desc": "During downtime, you perform for an audience to make money. The GM determines the levels of the audiences available and gives you a brief description of the most discerning (high-level) audience you could perform for. You can go looking for lower-level audiences, with the GM determining whether you find any. Sometimes you can attempt to find better audiences, though this requires spending downtime to Gather Information or researching and socializing. A typical audience of commoners on the street is a 0-level audience, but a group of artisans with more refined tastes might be a 2nd- or 3rd-level audience, and merchants, nobility, and royalty are increasingly higher level. The level of your audience is the task level for your performance.</p><p>When you choose your audience, the GM secretly sets the DC of your Performance check. The amount of money you can earn depends on the task level and your proficiency rank, as listed on Table 4&ndash;4: Skill Income (see page 153).</p><p>You need to spend a minimum number of downtime days to prepare for your performance, get out word to increase demand, allow time for the audience to plan attending, and play your first show. The exact number of days depends on your level and the level of the task. You must spend 4 downtime days for a task of your level. Reduce the number of days by 1 for each level lower than you the task is, to a minimum of 1 day. Conversely, increase the number of days by 1 for each level higher than you the task is. After this base duration, you earn your initial amount of money, and you can continue performing over subsequent days to keep earning more. The success entry explains how this works. Note that if you want to earn money for performing for just 1 day, you need to pick an audience that requires you to spend only 1 day of preparation. Performing for a 0-level audience always requires 1 day.</p><p>After you spend the base downtime to get started, roll your Performance check to determine your earnings. If you do well, the GM might determine you can extend your performance, working more shows to bring in more money; this does not require further checks. Eventually, however, your performance will end because you've exhausted your audiences. The GM might let you perform the same show for other audiences, reducing or eliminating the preparation time but lowering the task level.</p><p>Most performances can be staged for a couple weeks, or longer if you perform rarely and do other things with the rest of your downtime. Sometimes, taking time off from performing a show can draw in new high-level audiences, though this usually means you have to spend some time preparing again since you're rusty.",
            "success": "Your performance is competent and moving. You're rewarded with applause and whistles, plus the amount of currency listed on Table 4&ndash;4: Skill Income for the task level and your Performance proficiency rank. You can spend further downtime days on this performance, earning the same amount each day, until you exhaust your audience's interest.",
            "critsuccess": "Your performance inspires belly laughs, tears, or a change of heart among your audience. Per a success, but you earn money as though the task were 1 level higher. The GM might extend how long audiences stay interested.",
            "failure": "The audience is ambivalent or unimpressed by your performance. They respond with yawns and blank stares, and a few coins of pity. You earn the amount listed in the failure column of Table 4&ndash;4: Skill Income. The GM will likely reduce how long you can keep audience interest.",
            "critfailure": "Your awful performance turns the audience against you. They boo, hiss, and throw fruit or worse as they hassle you to end your performance. You earn nothing and your reputation suffers, potentially making it difficult to find discerning and rewarding audiences."
        }]
    },
    "Religion": {
        "ability": "Wisdom",
        "description": "The secrets of deities, dogma, faith, and the realms of divine creatures both sublime and sinister are open to you. You also understand how magic works, though your training gives a religious slant to that knowledge.",
        "untrained": [{
            "name": "Recall Knowledge",
            "actions": "one action",
            "actionicon": "<img src=\"/pathfinder/images/action-one.svg\" style=\"height: 1.5em; float: left;\">&nbsp;",
            "p": 156,
            "traits": "Concentrate, Secret",
            "desc": "You can use Religion to remember a bit of information on the subject of divine agents, the finer points of theology, and obscure myths regarding a faith. You can also recall some bit of lore about creatures with divine significance. The GM determines the DCs for such checks.",
            "success": "You recall the knowledge accurately.",
            "critfailure": "You recall incorrect information."
        }],
        "trained": [{
            "name": "Identify Magic",
            "actions": "activity",
            "p": 156,
            "traits": "Concentrate, Secret",
            "desc": "Once you discover that an item, ongoing effect, or location is magical, you can spend an hour to attempt to identify the particulars of its magic. If your attempt is interrupted, you must start over. The GM sets the DC for your check (see Table 4&ndash;2 on page 146). Cursed or esoteric items usually have higher DCs or might even be impossible to identify using Religion alone. Heightening a spell doesn't increase the DC.",
            "success": "For an item or location, you get a sense of what it does and learn any means of activating it. For an ongoing effect, you learn the effect's name and what it does. You can't try again in hopes of getting a critical success.",
            "critsuccess": "You learn all the attributes of the magic, including whether it is cursed.",
            "failure": "You fail to identify the magic and can't try again for 1 day.",
            "critfailure": "You misidentify the magic as something else of the GM's choice."
        }, {
            "name": "Learn a Divine Spell",
            "actions": "activity",
            "p": 156,
            "traits": "Concentrate",
            "desc": "If you're a divine spellcaster, you can gain access to a new divine spell from someone who knows that spell or from magical writing like ancient text written on a temple wall or a scroll.</p><p>To learn the spell, you must do the following.<ul><li>Spend 1 hour per level of the spell, during which you must remain in conversation with the person who knows the spell or have the magical writing in your possession.</li><li>Have an amount of magical materials with a value indicated in Table 4&ndash;2 on page 146.</li><li>Attempt a Religion check with a DC determined by the GM (see Table 4&ndash;2 on page 146).</li></ul>",
            "success": "You expend the materials and learn the spell. If you have a spellbook, the spell is added to your spellbook; if you prepare spells from a list, it's added to your list; if you have a spell repertoire, you can select it when you add or swap spells.",
            "critsuccess": "Per a success, but you expend only half the cost in materials.",
            "failure": "You fail to learn the spell but can try again after you gain a level. The materials aren't expended.",
            "critfailure": "Per a failure, plus you waste half the materials."
        }, {
            "name": "Read Scripture",
            "actions": "activity",
            "p": 156,
            "traits": "Concentrate, Secret",
            "desc": "You can read and understand religious writing, including allegories, homilies, and proverbs, as long as it is in a language you can normally read. This usually takes about 1 minute per page of text. To read and understand the nuances of particularly archaic or obscure texts, the GM may require you to attempt a Religion check to see if you understand the true meaning of the scripture. The GM might have you attempt one check for the entire text or one check for each section of a larger text.",
            "success": "You understand the true meaning of the text.",
            "critfailure": "You misread the text."
        }]
    },
    "Society": {
        "ability": "Intelligence",
        "description": "You understand the people and systems that make civilization run, and you know the historical events that make societies what they are today. Further, you can use that knowledge to navigate the twisted workings of settlements, whether they're physical, societal, or economic.",
        "untrained": [{
            "name": "Recall Knowledge",
            "actions": "one action",
            "actionicon": "<img src=\"/pathfinder/images/action-one.svg\" style=\"height: 1.5em; float: left;\">&nbsp;",
            "p": 157,
            "traits": "Concentrate, Secret",
            "desc": "You can use Society to remember a bit of knowledge regarding local history, important personalities, and legal institutions, or about creatures with complex societies. The GM determines the DCs for such checks.",
            "success": "You recall the knowledge accurately.",
            "critfailure": "You recall incorrect information."
        }, {
            "name": "Subsist on the Streets",
            "actions": "activity",
            "p": 157,
            "traits": "Downtime",
            "desc": "You find shelter and beg or scrounge enough food for at least yourself and maybe for other creatures as well. The GM determines the DC based on the nature of the settlement in which you are trying to subsist. You may need to have a minimum proficiency to use this downtime activity in more dangerous or highly organized settlements.",
            "success": "You acquire enough food for yourself and your shelter gives you basic protection from the elements, providing a subsistence living.",
            "critsuccess": "You can either provide a subsistence living for yourself and one additional creature, or you can improve your own food and shelter, granting yourself a comfortable living.",
            "failure": "You are exposed to the elements and don't get enough food; you become fatigued until you attain sufficient food and shelter.",
            "critfailure": "City guards, criminals, or other dangerous elements flush you out of your shelter and put you on notice, and you take a &ndash;2 circumstance penalty to Society checks to Subsist in the Streets for 1 week. You don't find any food at all; if you don't have any stored up, you're in danger of starving or dying of thirst if you continue critically failing."
        }],
        "trained": [{
            "name": "Create Forgery",
            "actions": "activity",
            "p": 157,
            "traits": "Downtime, Secret",
            "desc": "You create a forged document, usually over the course of several hours, a day, or a week. You must have the proper writing material to create a forgery. If the document's handwriting doesn't need to be specific to a person, you need only to have seen a similar document before, and you gain up to a +4 circumstance bonus to the check (the GM determines the bonus). To forge a specific person's handwriting, you need a sample of that person's handwriting.</p><p>Once someone observes the document, the GM rolls your Society check. If the result exceeds 20, the GM compares it to the observer's Society DC. If the result is 20 or lower, the observer uses Perception or Society, whichever is higher. An observer who is closely scrutinizing documents on the lookout for a forgery can attempt a Perception or Society check against your Society DC (if they succeed, they know your document is a forgery). Once the GM rolls your check for a document, that same result is used no matter how many creatures observe that document.",
            "success": "The forgery goes undetected.",
            "failure": "The observer knows your document is a forgery."
        }, {
            "name": "Decipher Writing",
            "actions": "activity",
            "p": 157,
            "traits": "Concentrate, Secret",
            "desc": "You can take at least 1 minute per page (usually an hour per page or longer) in an attempt to decipher writing in an unfamiliar language, a coded message, or text written in an incomplete or archaic form. The DC is determined by the GM based on the state of the document.",
            "success": "You understand the general content of the page.",
            "critsuccess": "You have a thorough understanding of the page's content, if not an exact word-for-word translation.",
            "failure": "You can't understand the document and take a &ndash;5 circumstance penalty to further Society checks to decipher the writing on that page.",
            "critfailure": "You believe you understand the text on that page, but you have in fact misconstrued its message."
        }]
    },
    "Stealth": {
        "ability": "Dexterity",
        "description": "You are skilled at avoiding detection, allowing you to slip past foes, hide, or conceal an item on your person.",
        "untrained": [{
            "name": "Conceal an Object",
            "actions": "one action",
            "actionicon": "<img src=\"/pathfinder/images/action-one.svg\" style=\"height: 1.5em; float: left;\">&nbsp;",
            "p": 158,
            "traits": "Manipulate, Secret",
            "desc": "Hiding a small object on your person (such as a weapon of light Bulk) requires a Stealth check. When you try to sneak a hidden object past someone who might notice it, the GM rolls your Stealth check and compares it to this passive observer's Perception DC. If the creature is specifically searching you for an item, they can attempt a Perception check against your Stealth DC (finding the object on success).</p><p>You can also conceal an object somewhere other than your person, such as among undergrowth or in a secret compartment within a piece of furniture. In this case, characters Seeking in an area compare their Perception check results to your Stealth DC to determine whether they find the object.",
            "success": "The object goes undetected.",
            "failure": "The searcher finds the object."
        }, {
            "name": "Hide",
            "actions": "one action",
            "actionicon": "<img src=\"/pathfinder/images/action-one.svg\" style=\"height: 1.5em; float: left;\">&nbsp;",
            "p": 158,
            "traits": "Secret",
            "desc": "You huddle behind cover or deeper into concealment to become merely <a url=\"/pathfinder/pf2e/traits.html\">sensed</a>, rather than <a url=\"/pathfinder/pf2e/traits.html\">seen</a> (see page 302). The GM rolls your Stealth check in secret and compares the result to the Perception DC of each creature that could potentially see you but that you have cover against or are concealed from.</p><p>If you successfully became <a url=\"/pathfinder/pf2e/traits.html\">sensed</a> to a creature, but then cease to have cover against that creature or be concealed from it, it again sees you. Such creatures see you if you do anything other than Hide or <a>Sneak</a>, though the GM might allow you to perform a particularly unobtrusive action, activity, free action, or reaction without being noticed, possibly requiring another Stealth check.",
            "success": "If the creature could see you, you're now sensed by the creature instead of seen. If you were unseen by the creature, you remain unseen."
        }, {
            "name": "Sneak",
            "actions": "one action",
            "actionicon": "<img src=\"/pathfinder/images/action-one.svg\" style=\"height: 1.5em; float: left;\">&nbsp;",
            "p": 158,
            "traits": "Move, Secret",
            "desc": "You can attempt to move to another place while becoming or staying <a url=\"/pathfinder/pf2e/traits.html\">unseen</a>. <a url=\"/pathfinder/pf2e/actions.html\">Stride</a> up to half your Speed. (You can use Sneak while Burrowing, Climbing, Flying, or Swimming instead of Striding if you have the corresponding movement type.)</p><p>The GM rolls your Stealth check in secret and compares the result to the Perception DCs of creatures that you were <a url=\"/pathfinder/pf2e/traits.html\">sensed</a> or <a url=\"/pathfinder/pf2e/traits.html\">unseen</a> by at the start of your movement.</p><p>You automatically become <a url=\"/pathfinder/pf2e/traits.html\">seen</a> if you don't have cover or aren't concealed from them at any time during your movement, or as soon as you do anything other than Hide or Sneak. The GM might allow you to perform a particularly unobtrusive action, activity, free action, or reaction without being noticed, possibly requiring another Stealth check. If you speak or make a deliberate loud noise, you become <a url=\"/pathfinder/pf2e/traits.html\">sensed</a>. If you do anything else, you become <a url=\"/pathfinder/pf2e/traits.html\">seen</a> just before you act. For instance, if you attack a creature you're <a url=\"/pathfinder/pf2e/traits.html\">unseen</a> by, that creature is not <a url=\"/pathfinder/pf2e/conditions.html\">flat-footed</a> against that attack.</p><p>If you're <a url=\"/pathfinder/pf2e/traits.html\">unseen</a> by a creature and it's impossible for that creature to see you (such as when you're invisible, the observer is blinded, or you're in darkness and the creature can't see in darkness), you automatically treat the result of your d20 roll as a 20 against that creature on your checks to Sneak. You also continue to be <a url=\"/pathfinder/pf2e/traits.html\">unseen</a> if you lose cover against or are no longer concealed from such a creature. Acting to do something other than Hide or Sneak makes you <a url=\"/pathfinder/pf2e/traits.html\">sensed</a> instead of <a url=\"/pathfinder/pf2e/traits.html\">seen</a>. If a creature senses you via <a url=\"/pathfinder/pf2e/actions.html\">Seek</a>, you must Sneak to become <a url=\"/pathfinder/pf2e/traits.html\">unseen</a> by it again.",
            "success": "You become unseen by the creature (or remain so) during your movement and remain unseen by the creature at the end of it.",
            "failure": "You're seen by the creature throughout your movement and remain so. If you're invisible and were sensed by the creature, you're still sensed throughout your movement and remain sensed, but you aren't seen."
        }],
        "trained": []
    },
    "Survival": {
        "ability": "Wisdom",
        "description": "You are skilled at living in the wilderness, foraging for food and building shelter, and with training you discover the secrets of tracking and hiding your trail.",
        "untrained": [{
            "name": "Sense Direction",
            "actions": "activity",
            "p": 158,
            "traits": "Secret",
            "desc": "Using the stars, the position of the sun, traits of the geography or flora, or the behavior of fauna, you can stay oriented in the wild. Typically, you roll only once per day, but some environments or changes might necessitate rolling more often. The GM determines the DC and how long this activity takes. More exotic locales or those you're unfamiliar with might require you to have a minimum proficiency rank to Sense Direction.",
            "success": "You gain enough orientation to avoid becoming hopelessly lost. If you are in an environment with cardinal directions, you have a sense of those directions."
        }, {
            "name": "Survive in the Wild",
            "actions": "activity",
            "p": "158-159",
            "traits": "Downtime",
            "desc": "You build or maintain a shelter and forage enough food for yourself and maybe for other creatures as well. The GM determines the DC based on the nature of the wilderness you are trying to survive in. More exotic locales may require you to have a minimum proficiency rank to use this downtime-activity.",
            "success": "You forage enough food for yourself, and your shelter gives you basic protection from the elements, providing a subsistence living.",
            "critsuccess": "You can either provide a subsistence living for yourself and one additional creature, or you can improve your own food and shelter, granting yourself a comfortable living.",
            "failure": "You are exposed to the elements and don't get enough food, becoming fatigued until you get sufficient food and shelter.",
            "critfailure": "Your shelter is severely damaged or destroyed, and you take a &ndash;2 circumstance penalty to Survival checks to Survive in the Wild for 1 week. You don't find any food at all; if you don't have any stored up, you're in danger of starving or dying of thirst if you continue critically failing."
        }],
        "trained": [{
            "name": "Cover Tracks",
            "actions": "one action",
            "actionicon": "<img src=\"/pathfinder/images/action-one.svg\" style=\"height: 1.5em; float: left;\">&nbsp;",
            "p": 159,
            "traits": "Concentrate, Move",
            "desc": "You cover your tracks, moving at half your Speed. You don't need to roll a Survival check to cover your tracks, but anyone tracking you must exceed your Survival DC if it is higher than the normal DC to track."
        }, {
            "name": "Track",
            "actions": "one action",
            "actionicon": "<img src=\"/pathfinder/images/action-one.svg\" style=\"height: 1.5em; float: left;\">&nbsp;",
            "p": 159,
            "traits": "Concentrate, Move",
            "desc": "You follow tracks, moving at half your Speed. After a successful check to Track, you can continue following the tracks at half your Speed without rolling additional checks for up to 1 hour. You need to attempt a check anytime something significant changes in the trail, as well as once every hour. The GM determines the DCs for such checks, depending on the freshness of the trail, the weather, and the type of ground.",
            "success": "You find the trail or continue to follow the one you're already following.",
            "failure": "You lose the trail but can try again after a 1-hour delay."
        }]
    },
    "Thievery": {
        "ability": "Dexterity",
        "description": "You are trained in a particular set of skills favored by thieves and miscreants. Disabling devices and picking locks either are aided by or require the use of thieves' tools (see page 187).",
        "untrained": [{
            "name": "Palm an Object",
            "actions": "one action",
            "actionicon": "<img src=\"/pathfinder/images/action-one.svg\" style=\"height: 1.5em; float: left;\">&nbsp;",
            "p": 159,
            "traits": "Manipulate",
            "desc": "Palming a small (usually of negligible Bulk), unattended object without being noticed requires a Thievery check against the Perception DCs of creatures who have you within their sight. You take the object whether or not you successfully conceal that you did so.",
            "success": "If your result meets or exceeds every observer's Perception DC, you palm the object without being detected.",
            "failure": "If your result is lower than an observing creature's Perception DC, that creature notices you palming the object. The GM determines the creature's response."
        }, {
            "name": "Steal an Object",
            "actions": "one action",
            "actionicon": "<img src=\"/pathfinder/images/action-one.svg\" style=\"height: 1.5em; float: left;\">&nbsp;",
            "p": 159,
            "traits": "Manipulate",
            "desc": "Stealing a small (usually of negligible Bulk) object from another person can be very difficult. If the object is worn but relatively unattended (like a loosely carried pouch filled with coins, or an object within such a pouch), the DC to steal the item without detection is equal to the creature's Perception DC. You can't steal an object that's more closely guarded (in a pocket, for example), nor can you steal from a creature who is in combat or otherwise on guard. The GM determines the response of any creature that notices your theft.</p><p>The GM might impose a penalty on your check if the nature of the object makes it harder to steal (such as a very small item in a large pack, or a sheet of parchment mixed in with other documents). The GM can also penalize the Perception DC of observers if they're distracted.",
            "success": "You steal the item without the bearer noticing, or an observer doesn't see you take or attempt to take the item.",
            "failure": "The item's bearer notices your attempt before you can take the object, or an observer sees you take or attempt to take the item."
        }],
        "trained": [{
            "name": "Disable a Device",
            "actions": "one action",
            "actionicon": "<img src=\"/pathfinder/images/action-one.svg\" style=\"height: 1.5em; float: left;\">&nbsp;",
            "p": 159,
            "traits": "Manipulate",
            "desc": "This action allows you to disarm a trap or some other complex device. Often, a device requires numerous successes before becoming disabled, depending on its construction and complexity. Thieves' tools are helpful and sometimes even required to disable a device, as determined by the GM, and sometimes a device requires a higher proficiency rank in Thievery to disable it.",
            "requirements": "Some devices require you to use thieves' tools (see page 187) when disabling them.",
            "success": "You achieve one success toward disabling the device.",
            "critsuccess": "You achieve two successes toward disabling the device. If you complete the process of disabling the device with this check, you leave no trace of your tampering, and you can rearm the device later, if the type of device can be rearmed.",
            "critfailure": "You either undo one success you've already gained or, if you have no successes, you set off the device."
        }, {
            "name": "Pick a Lock",
            "actions": "one action",
            "actionicon": "<img src=\"/pathfinder/images/action-one.svg\" style=\"height: 1.5em; float: left;\">&nbsp;",
            "p": 159,
            "traits": "Manipulate",
            "desc": "Opening a lock without a key is very similar to Disabling a Device, but the DC of the check is determined by the complexity and construction of the lock you are attempting to pick. Unlocking even the simplest of mechanisms almost always requires three or more successful checks to accomplish. If you lack the proper tools, the GM might let you used improvised picks, which are treated as poor-quality tools.",
            "requirements": "You must be using thieves' tools (see page 187).",
            "success": "You gain one success toward opening the lock.",
            "critsuccess": "You gain two successes toward opening the lock.",
            "critfailure": "You either undo one success you have already gained, or, if you have no successes, you break your tools. The tools can be used while broken, but are treated as poorquality tools. Repairing them requires replacing the tools (costing 6 sp, or 50 sp for expert-quality thieves' tools)."
        }]
    }
}