<?xml version="1.0" standalone="no"?>
<!DOCTYPE svg PUBLIC "-//W3C//DTD SVG 20010904//EN"
 "http://www.w3.org/TR/2001/REC-SVG-20010904/DTD/svg10.dtd">
<svg version="1.0" xmlns="http://www.w3.org/2000/svg"
 width="329.000000pt" height="326.000000pt" viewBox="0 0 329.000000 326.000000"
 preserveAspectRatio="xMidYMid meet">

<g transform="translate(0.000000,326.000000) scale(0.100000,-0.100000)"
fill="#500000" stroke="none">
<path d="M1397 2979 c-153 -156 -277 -288 -277 -293 0 -5 234 -244 520 -530
l519 -521 -524 -531 -523 -531 281 -281 282 -282 809 809 810 810 -192 198
c-105 109 -469 476 -810 816 l-619 619 -276 -283z"/>
<path d="M455 2080 l-450 -450 455 -455 455 -455 452 452 453 453 -452 452
c-249 249 -455 453 -458 453 -3 0 -208 -203 -455 -450z"/>
</g>
</svg>
