<?xml version="1.0" standalone="no"?>
<!DOCTYPE svg PUBLIC "-//W3C//DTD SVG 20010904//EN"
 "http://www.w3.org/TR/2001/REC-SVG-20010904/DTD/svg10.dtd">
<svg version="1.0" xmlns="http://www.w3.org/2000/svg"
 width="368.000000pt" height="368.000000pt" viewBox="0 0 368.000000 368.000000"
 preserveAspectRatio="xMidYMid meet">

<g transform="translate(0.000000,368.000000) scale(0.100000,-0.100000)"
fill="#500000" stroke="none">
<path d="M927 2752 l-917 -917 918 -918 917 -917 918 918 917 917 -918 918
-917 917 -918 -918z m1576 -1564 c-357 -357 -652 -648 -658 -648 -6 0 -116
106 -245 235 l-235 235 413 413 412 412 -412 412 -413 413 240 240 240 240
652 -652 653 -653 -647 -647z m-960 994 l357 -357 -358 -358 -357 -357 -360
360 -360 360 355 355 c195 195 357 355 360 355 3 0 166 -161 363 -358z"/>
</g>
</svg>
